[gd_scene load_steps=2 format=3 uid="uid://pqyxmgkb7tiy"]

[ext_resource type="Script" path="res://Scripts/fire_base_connector.gd" id="1_mpki3"]

[node name="FireBase Connector" type="Node2D"]
script = ExtResource("1_mpki3")

[node name="HTTPRequest" type="HTTPRequest" parent="."]
