[gd_resource type="AudioBusLayout" format=3 uid="uid://d02kaab00rv3p"]

[resource]
bus/0/volume_db = -3.76831
bus/1/name = &"SFX"
bus/1/solo = false
bus/1/mute = false
bus/1/bypass_fx = false
bus/1/volume_db = -3.76831
bus/1/send = &"Master"
bus/2/name = &"Music"
bus/2/solo = false
bus/2/mute = false
bus/2/bypass_fx = false
bus/2/volume_db = -3.76831
bus/2/send = &"Master"
