[gd_scene load_steps=5 format=3 uid="uid://c2vsehq2gt8f4"]

[ext_resource type="Texture2D" uid="uid://csu8bonm0p300" path="res://Sprites/Cards/Green Cards/Death Green Card.png" id="1_e5qys"]
[ext_resource type="Script" path="res://Scripts/Level Editor/Deck Card Button.gd" id="2_yniky"]

[sub_resource type="Gradient" id="Gradient_imv4n"]
offsets = PackedFloat32Array(0)
colors = PackedColorArray(0.976471, 1, 0, 1)

[sub_resource type="GradientTexture2D" id="GradientTexture2D_o3f1v"]
gradient = SubResource("Gradient_imv4n")

[node name="DeckCardButton" type="TextureButton"]
z_index = 1
button_mask = 3
texture_normal = ExtResource("1_e5qys")
texture_pressed = ExtResource("1_e5qys")
texture_hover = ExtResource("1_e5qys")
texture_disabled = ExtResource("1_e5qys")
texture_focused = ExtResource("1_e5qys")
script = ExtResource("2_yniky")

[node name="Outline" type="TextureRect" parent="."]
visible = false
z_index = -1
layout_mode = 0
offset_left = -1.0
offset_top = -1.0
offset_right = 63.0
offset_bottom = 63.0
scale = Vector2(0.58, 0.82)
texture = SubResource("GradientTexture2D_o3f1v")

[connection signal="pressed" from="." to="." method="_on_pressed"]
