[gd_scene load_steps=6 format=3 uid="uid://bifjgebkvrgtd"]

[ext_resource type="Script" path="res://Scripts/Floor/Connector.gd" id="1_l6qe3"]
[ext_resource type="Texture2D" uid="uid://demdie1u1h62a" path="res://Sprites/Floors sprites/Connectors sprites/Connector Red.png" id="2_ppxon"]

[sub_resource type="RectangleShape2D" id="RectangleShape2D_tpqmu"]

[sub_resource type="Animation" id="Animation_rr5n0"]
resource_name = "Destroy"
length = 0.5
tracks/0/type = "value"
tracks/0/imported = false
tracks/0/enabled = true
tracks/0/path = NodePath(".:scale")
tracks/0/interp = 1
tracks/0/loop_wrap = true
tracks/0/keys = {
"times": PackedFloat32Array(0, 0.5),
"transitions": PackedFloat32Array(1, 1),
"update": 0,
"values": [Vector2(1, 1), Vector2(1e-05, 1e-05)]
}

[sub_resource type="AnimationLibrary" id="AnimationLibrary_h4xgp"]
_data = {
"Destroy": SubResource("Animation_rr5n0")
}

[node name="Connector Red" type="Area2D"]
z_index = 10
script = ExtResource("1_l6qe3")
ConnectorType = 2

[node name="Sprite2D" type="Sprite2D" parent="."]
texture = ExtResource("2_ppxon")

[node name="CollisionShape2D" type="CollisionShape2D" parent="."]
shape = SubResource("RectangleShape2D_tpqmu")

[node name="AnimationPlayer" type="AnimationPlayer" parent="."]
libraries = {
"": SubResource("AnimationLibrary_h4xgp")
}

[connection signal="body_entered" from="." to="." method="_on_body_entered"]
